idCategory,desCategory,iconCategory,imgCategory,startDate,endDate
1.0,Banco,icons:account-balance,banco.jpg,1/1/2000,1/1/3000
2.0,Cajero,icons:euro-symbol,cajero.jpg,1/1/2000,1/1/3000
3.0,Compra,icons:shopping-cart,compra.jpg,1/1/2000,1/1/3000
4.0,Ocio,icons:theaters,ocio.jpg,1/1/2000,1/1/3000
5.0,Recibo,icons:camera-enhance,recibo.jpg,1/1/2000,1/1/3000
6.0,Restaurante,maps:restaurant,restaurante.jpg,1/1/2000,1/1/3000
7.0,Salud,icons:camera-enhance,salud.jpg,1/1/2000,1/1/3000
8.0,Transporte,maps:local-gas-station,transporte.jpg,1/1/2000,1/1/3000
9.0,Traspaso,icons:redo,traspaso.jpg,1/1/2000,1/1/3000
10.0,Ropa,icons:store,compra.jpg,1/1/2000,1/1/3000
11.0,Viajes,device:airplanemode-active,ocio.jpg,1/1/2000,1/1/3000
12.0,Regalos,icons:redeem,gift.jpg,1/1/2000,1/1/3000
13.0,Hoteles,maps:local-hotel,hotel.jpg,1/1/2000,1/1/3000
